\thispagestyle {plain}
\contentsline {chapter}{Streszczenie}{6}{chapter*.1}
\contentsline {chapter}{Summary}{7}{chapter*.1}
\contentsline {chapter}{Przedmowa}{8}{chapter*.2}
\contentsline {chapter}{Rozdzia\PlPrIeC {\l }\ 1\relax .\kern .5em In\IeC {\.z}ynier mechanik}{11}{chapter.1}
\contentsline {section}{\numberline {1.1\relax .\kern .5em }Sylwetka}{11}{section.1.1}
\contentsline {section}{\numberline {1.2\relax .\kern .5em }Zadania}{11}{section.1.2}
\contentsline {section}{\numberline {1.3\relax .\kern .5em }Narz\IeC {\k e}dzia}{11}{section.1.3}
